{
    "code": "0",
    "data": {
        "recommendData": null,
        "searchData": {
            "doc": [
                {
                    "id": 195116,
                    "productInfo": {
                        "address": "朝阳路85号院铜牛电影产业园1号楼A座",
                        "businessesDistrict": "青年路",
                        "cityId": 1,
                        "commentTags": null,
                        "cuisineStyle": "其它",
                        "discountDesc": null,
                        "discountIconUrl": null,
                        "distance": "",
                        "highLigth": "三层楼美式豪华装修 真皮沙发贵气十足",
                        "hostName": "十二骑士啤酒",
                        "id": 195116,
                        "isHaveEquities": 0,
                        "isInterested": null,
                        "isJoinRedPacket": 0,
                        "latitude": null,
                        "linkUrl": null,
                        "logoUrl": "http://p.yhres.com/hostInfo/2017/06/04/1496564241180786.jpg-ssq75",
                        "longitude": null,
                        "packageDesc": null,
                        "packageIconUrl": null,
                        "picUrl": "http://p.yhres.com/hostInfo/2017/06/04/1496564239934707.jpg-rq75h",
                        "price": 89,
                        "priceStr": "89元",
                        "publicityWord": null,
                        "recommendDesc": null,
                        "recommendSubHead": null,
                        "recommendTitle": null,
                        "specialty": null,
                        "tagArr": [],
                        "tagArrDesc": [],
                        "title": "十二骑士啤酒",
                        "vipEqsTag": ""
                    },
                    "productType": 3
                },
                {
                    "id": 196880,
                    "productInfo": {
                        "address": "白塔寺东夹道26号",
                        "businessesDistrict": "阜成门",
                        "cityId": 1,
                        "commentTags": null,
                        "cuisineStyle": "咖啡厅",
                        "discountDesc": null,
                        "discountIconUrl": null,
                        "distance": "",
                        "highLigth": "在胡同露台喝手冲 遥看最美白塔",
                        "hostName": "熊煮咖啡Bear Brew",
                        "id": 196880,
                        "isHaveEquities": 0,
                        "isInterested": null,
                        "isJoinRedPacket": 0,
                        "latitude": null,
                        "linkUrl": null,
                        "logoUrl": "http://p.yhres.com/hostInfo/2017/06/02/1496393091152437.jpg-ssq75",
                        "longitude": null,
                        "packageDesc": null,
                        "packageIconUrl": null,
                        "picUrl": "http://p.yhres.com/hostInfo/2017/06/02/1496393448123805.jpg-rq75h",
                        "price": 44,
                        "priceStr": "44元",
                        "publicityWord": null,
                        "recommendDesc": null,
                        "recommendSubHead": null,
                        "recommendTitle": null,
                        "specialty": null,
                        "tagArr": [],
                        "tagArrDesc": [],
                        "title": "熊煮咖啡Bear Brew",
                        "vipEqsTag": ""
                    },
                    "productType": 3
                },
                {
                    "id": 196873,
                    "productInfo": {
                        "address": "三里屯1号Mercedesme2层",
                        "businessesDistrict": "三里屯",
                        "cityId": 1,
                        "commentTags": null,
                        "cuisineStyle": "酒吧",
                        "discountDesc": null,
                        "discountIconUrl": null,
                        "distance": "",
                        "highLigth": "刷爆朋友圈的三里屯奔驰餐厅 创意十足",
                        "hostName": "Lighthaus灯塔",
                        "id": 196873,
                        "isHaveEquities": 0,
                        "isInterested": null,
                        "isJoinRedPacket": 0,
                        "latitude": null,
                        "linkUrl": null,
                        "logoUrl": "http://p.yhres.com/hostInfo/2017/06/02/1496385682163974.jpg-ssq75",
                        "longitude": null,
                        "packageDesc": null,
                        "packageIconUrl": null,
                        "picUrl": "http://p.yhres.com/hostInfo/2017/06/02/1496385869736434.jpg-rq75h",
                        "price": 100,
                        "priceStr": "100元",
                        "publicityWord": null,
                        "recommendDesc": null,
                        "recommendSubHead": null,
                        "recommendTitle": null,
                        "specialty": null,
                        "tagArr": [],
                        "tagArrDesc": [],
                        "title": "Lighthaus灯塔",
                        "vipEqsTag": ""
                    },
                    "productType": 3
                },
                {
                    "id": 196860,
                    "productInfo": {
                        "address": "竞园艺术中心东侧",
                        "businessesDistrict": "北京东站",
                        "cityId": 1,
                        "commentTags": null,
                        "cuisineStyle": "咖啡厅",
                        "discountDesc": null,
                        "discountIconUrl": null,
                        "distance": "",
                        "highLigth": "适合自拍的“高颜值”咖啡厅",
                        "hostName": "山咖啡（Shan Cafe）",
                        "id": 196860,
                        "isHaveEquities": 0,
                        "isInterested": null,
                        "isJoinRedPacket": 0,
                        "latitude": null,
                        "linkUrl": null,
                        "logoUrl": "http://p.yhres.com/hostInfo/2017/06/02/1496377850911673.jpg-ssq75",
                        "longitude": null,
                        "packageDesc": null,
                        "packageIconUrl": null,
                        "picUrl": "http://p.yhres.com/hostInfo/2017/06/02/1496377850820871.jpg-rq75h",
                        "price": 70,
                        "priceStr": "70元",
                        "publicityWord": null,
                        "recommendDesc": null,
                        "recommendSubHead": null,
                        "recommendTitle": null,
                        "specialty": null,
                        "tagArr": [],
                        "tagArrDesc": [],
                        "title": "山咖啡（Shan Cafe）",
                        "vipEqsTag": ""
                    },
                    "productType": 3
                },
                {
                    "id": 196087,
                    "productInfo": {
                        "address": "北京市朝阳区东风南路5号院5号楼幻bar（朝阳气象局对面）",
                        "businessesDistrict": "朝阳其它",
                        "cityId": 1,
                        "commentTags": null,
                        "cuisineStyle": "酒吧",
                        "discountDesc": null,
                        "discountIconUrl": null,
                        "distance": "",
                        "highLigth": "来自奥地利品牌的勃艮第杯 别致独特",
                        "hostName": "幻BAR",
                        "id": 196087,
                        "isHaveEquities": 0,
                        "isInterested": null,
                        "isJoinRedPacket": 0,
                        "latitude": null,
                        "linkUrl": null,
                        "logoUrl": "http://p.yhres.com/hostInfo/2017/05/22/1495448675823355.png-ssq75",
                        "longitude": null,
                        "packageDesc": null,
                        "packageIconUrl": null,
                        "picUrl": "http://p.yhres.com/hostInfo/2017/05/29/1496071831981720.png-rq75h",
                        "price": 156,
                        "priceStr": "156元",
                        "publicityWord": null,
                        "recommendDesc": null,
                        "recommendSubHead": null,
                        "recommendTitle": null,
                        "specialty": null,
                        "tagArr": [],
                        "tagArrDesc": [],
                        "title": "幻BAR",
                        "vipEqsTag": ""
                    },
                    "productType": 3
                },
                {
                    "id": 143473,
                    "productInfo": {
                        "address": "德胜门内大街70号",
                        "businessesDistrict": "什刹海",
                        "cityId": 1,
                        "commentTags": [
                            "回头客",
                            " 家庭聚餐",
                            " 干净卫生"
                        ],
                        "cuisineStyle": "云贵菜",
                        "discountDesc": null,
                        "discountIconUrl": null,
                        "distance": "",
                        "highLigth": "定制专属于你的川蜀风味私家厨房",
                        "hostName": "胡同四十四号厨房(德胜门店)",
                        "id": 143473,
                        "isHaveEquities": 0,
                        "isInterested": null,
                        "isJoinRedPacket": 0,
                        "latitude": null,
                        "linkUrl": null,
                        "logoUrl": "http://p.yhres.com/hostInfo/2017/03/16/1489662634509350.jpg-ssq75",
                        "longitude": null,
                        "packageDesc": null,
                        "packageIconUrl": null,
                        "picUrl": "http://p.yhres.com/hostInfo/2017/05/29/1496057428966746.png-rq75h",
                        "price": 113,
                        "priceStr": "113元",
                        "publicityWord": null,
                        "recommendDesc": null,
                        "recommendSubHead": null,
                        "recommendTitle": null,
                        "specialty": null,
                        "tagArr": [],
                        "tagArrDesc": [],
                        "title": "胡同四十四号厨房(德胜门店)",
                        "vipEqsTag": ""
                    },
                    "productType": 3
                },
                {
                    "id": 175480,
                    "productInfo": {
                        "address": "维吉奥广场N2-F1-06",
                        "businessesDistrict": "北京欢乐谷",
                        "cityId": 1,
                        "commentTags": null,
                        "cuisineStyle": "西餐",
                        "discountDesc": null,
                        "discountIconUrl": null,
                        "distance": "",
                        "highLigth": "青春洋溢 时尚简约的音乐餐厅",
                        "hostName": "客莱乐colala酒窖",
                        "id": 175480,
                        "isHaveEquities": 0,
                        "isInterested": null,
                        "isJoinRedPacket": 0,
                        "latitude": null,
                        "linkUrl": null,
                        "logoUrl": "http://p.yhres.com/hostInfo/2017/05/29/1496054458752916.png-ssq75",
                        "longitude": null,
                        "packageDesc": null,
                        "packageIconUrl": null,
                        "picUrl": "http://p.yhres.com/hostInfo/2017/05/29/1496054458677674.jpg-rq75h",
                        "price": 939,
                        "priceStr": "939元",
                        "publicityWord": null,
                        "recommendDesc": null,
                        "recommendSubHead": null,
                        "recommendTitle": null,
                        "specialty": null,
                        "tagArr": [],
                        "tagArrDesc": [],
                        "title": "客莱乐colala酒窖",
                        "vipEqsTag": ""
                    },
                    "productType": 3
                },
                {
                    "id": 51916,
                    "productInfo": {
                        "address": "方家胡同46号院H座",
                        "businessesDistrict": "北新桥/簋街",
                        "cityId": 1,
                        "commentTags": [
                            "有萌宠",
                            " 约会圣地",
                            " 味道赞"
                        ],
                        "cuisineStyle": "咖啡厅",
                        "discountDesc": null,
                        "discountIconUrl": null,
                        "distance": "",
                        "highLigth": "电影分手合约的著名取景地",
                        "hostName": "红叶拾楠咖啡馆",
                        "id": 51916,
                        "isHaveEquities": 0,
                        "isInterested": null,
                        "isJoinRedPacket": 0,
                        "latitude": null,
                        "linkUrl": null,
                        "logoUrl": "http://p.yhres.com/hostInfo/2017/03/23/1490260100485041.jpg-ssq75",
                        "longitude": null,
                        "packageDesc": null,
                        "packageIconUrl": null,
                        "picUrl": "http://p.yhres.com/hostInfo/2017/05/29/1496049985608794.png-rq75h",
                        "price": 49,
                        "priceStr": "49元",
                        "publicityWord": null,
                        "recommendDesc": null,
                        "recommendSubHead": null,
                        "recommendTitle": null,
                        "specialty": null,
                        "tagArr": [],
                        "tagArrDesc": [],
                        "title": "红叶拾楠咖啡馆",
                        "vipEqsTag": ""
                    },
                    "productType": 3
                },
                {
                    "id": 190878,
                    "productInfo": {
                        "address": "朝阳区工体三里屯新东路首开铂郡5号楼底商1-023(悠咖啡东门对面)",
                        "businessesDistrict": "三里屯",
                        "cityId": 1,
                        "commentTags": null,
                        "cuisineStyle": "茶馆",
                        "discountDesc": null,
                        "discountIconUrl": null,
                        "distance": "",
                        "highLigth": "闹中取静的世外茶园",
                        "hostName": "水印茶舍",
                        "id": 190878,
                        "isHaveEquities": 0,
                        "isInterested": null,
                        "isJoinRedPacket": 0,
                        "latitude": null,
                        "linkUrl": null,
                        "logoUrl": "http://p.yhres.com/hostInfo/2017/03/23/1490267321837747.jpg-ssq75",
                        "longitude": null,
                        "packageDesc": null,
                        "packageIconUrl": null,
                        "picUrl": "http://p.yhres.com/hostInfo/2017/05/29/1496049401294617.png-rq75h",
                        "price": 134,
                        "priceStr": "134元",
                        "publicityWord": null,
                        "recommendDesc": null,
                        "recommendSubHead": null,
                        "recommendTitle": null,
                        "specialty": null,
                        "tagArr": [],
                        "tagArrDesc": [],
                        "title": "水印茶舍",
                        "vipEqsTag": ""
                    },
                    "productType": 3
                },
                {
                    "id": 191094,
                    "productInfo": {
                        "address": "朝阳北路青年汇三期102号楼10层1011",
                        "businessesDistrict": "青年路",
                        "cityId": 1,
                        "commentTags": null,
                        "cuisineStyle": "咖啡厅",
                        "discountDesc": null,
                        "discountIconUrl": null,
                        "distance": "",
                        "highLigth": "洋溢青春气息的咖啡主题轰趴馆",
                        "hostName": "轰咖轰咖 咖啡主题轰趴馆",
                        "id": 191094,
                        "isHaveEquities": 0,
                        "isInterested": null,
                        "isJoinRedPacket": 0,
                        "latitude": null,
                        "linkUrl": null,
                        "logoUrl": "http://p.yhres.com/hostInfo/2017/03/26/1490505947764777.jpg-ssq75",
                        "longitude": null,
                        "packageDesc": null,
                        "packageIconUrl": null,
                        "picUrl": "http://p.yhres.com/hostInfo/2017/03/26/1490505947711673.jpg-rq75h",
                        "price": 86,
                        "priceStr": "86元",
                        "publicityWord": null,
                        "recommendDesc": null,
                        "recommendSubHead": null,
                        "recommendTitle": null,
                        "specialty": null,
                        "tagArr": [],
                        "tagArrDesc": [],
                        "title": "轰咖轰咖 咖啡主题轰趴馆",
                        "vipEqsTag": ""
                    },
                    "productType": 3
                }
            ],
            "isEnd": 0,
            "nextPage": 2,
            "page": 1,
            "pageSize": 10,
            "pid": "195116,196880,196873,196860,196087,143473,175480,51916,190878,191094",
            "totalRows": 1624
        }
    },
    "detail": "",
    "message": "success"
}