{
    "code": "0",
    "data": {
        "doc": [
            {
                "itemData": [
                    {
                        "id": 42,
                        "menuHref": "yhouse://search?bizType=2&filter=33&catalog=33&sort=2",
                        "menuIcon": "http://r.yhres.com/home/near@3x.png?v2",
                        "menuName": "附近"
                    },
                    {
                        "id": 41,
                        "menuHref": "yhouse://search?bizType=2&filter=33&catalog=33&sort=4",
                        "menuIcon": "http://r.yhres.com/home/hot@3x.png?v2",
                        "menuName": "最热"
                    },
                    {
                        "id": 43,
                        "menuHref": "yhouse://web?title=%E5%81%9A%E4%BB%BB%E5%8A%A1%20%E8%B5%9A%E7%BA%A2%E5%8C%85&url=my-purse-tasks-app&hideShortcut=1&refreshAfterLogin=1",
                        "menuIcon": "http://r.yhres.com/home/newbie@3x.png",
                        "menuName": "任务红包"
                    },
                    {
                        "id": 5,
                        "menuHref": "yhouse://invitation2",
                        "menuIcon": "http://r.yhres.com/home/invitationcard@3x.png",
                        "menuName": "电子请柬"
                    }
                ],
                "itemLayout": 0,
                "itemType": 40
            },
            {
                "itemData": null,
                "itemLayout": 2,
                "itemType": 30
            },
            {
                "countStr": "",
                "itemType": 20,
                "itemLayout": 3,
                "itemData": [
                    {
                        "content": "<p style=\"white-space:normal;\">\r\n\t放肆畅饮，酒精与味蕾碰撞出惊喜\r\n</p>\r\n<p style=\"white-space:normal;\">\r\n\t小酌一杯，耳边低吟浅唱惬意非常\r\n</p>\r\n<p style=\"white-space:normal;\">\r\n\t卸去一身疲惫最好的方法\r\n</p>\r\n<p style=\"white-space:normal;\">\r\n\t便是趁着夜色，寻一间酒吧完全放空\r\n</p>\r\n<p style=\"white-space:normal;\">\r\n\tYHOUSE为您指路城内潮人夜生活去处\r\n</p>\r\n<p style=\"white-space:normal;\">\r\n\t活着，就是为了痛饮\r\n</p>",
                        "contentsNumStr": "15个商户",
                        "description": "<p style=\"white-space:normal;\">\r\n\t放肆畅饮，酒精与味蕾碰撞出惊喜\r\n</p>\r\n<p style=\"white-space:normal;\">\r\n\t小酌一杯，耳边低吟浅唱惬意非常\r\n</p>\r\n<p style=\"white-space:normal;\">\r\n\t卸去一身疲惫最好的方法\r\n</p>\r\n<p style=\"white-space:normal;\">\r\n\t便是趁着夜色，寻一间酒吧完全放空\r\n</p>\r\n<p style=\"white-space:normal;\">\r\n\tYHOUSE为您指路城内潮人夜生活去处\r\n</p>\r\n<p style=\"white-space:normal;\">\r\n\t活着，就是为了痛饮\r\n</p>",
                        "id": 4054,
                        "isInterested": 0,
                        "list": [
                            {
                                "bdAndCs": "朝外大街·酒吧",
                                "distance": 0,
                                "icon": "http://p.yhres.com/hostInfo/2016/12/20/1482228478379077.jpg-sq75h",
                                "isHaveEquities": 0,
                                "link": "yhouse://host/54239",
                                "price": "人均: 192元",
                                "sort": 1,
                                "tags": null,
                                "title": "Face酒廊"
                            },
                            {
                                "bdAndCs": "工人体育场·酒吧",
                                "distance": 0,
                                "icon": "http://p.yhres.com/hostInfo/2016/12/20/1482203864588298.jpg-sq75h",
                                "isHaveEquities": 0,
                                "link": "yhouse://host/52425",
                                "price": "人均: 233元",
                                "sort": 2,
                                "tags": null,
                                "title": "Cargo Club"
                            },
                            {
                                "bdAndCs": "国贸·酒吧",
                                "distance": 0,
                                "icon": "http://p.yhres.com/hostInfo/2016/12/20/1482204689389227.jpg-sq75h",
                                "isHaveEquities": 0,
                                "link": "yhouse://host/52428",
                                "price": "人均: 238元",
                                "sort": 3,
                                "tags": null,
                                "title": "China Bar"
                            },
                            {
                                "bdAndCs": "三里屯·酒吧",
                                "distance": 0,
                                "icon": "http://p.yhres.com/hostInfo/2016/12/09/1481277177253775.jpg-sq75h",
                                "isHaveEquities": 0,
                                "link": "yhouse://host/48698",
                                "price": "人均: 143元",
                                "sort": 4,
                                "tags": null,
                                "title": "D Lounge北京"
                            }
                        ],
                        "picUrl": "http://p.yhres.com/topic/2017/03/10/156957_1489147383830.jpg-q75",
                        "sPicUrl": "http://p.yhres.com/topic/2017/03/10/156957_1489147383830.jpg-ssq75",
                        "schemeUrl": "yhouse://topic/4054",
                        "shareUrl": "http://m.yhouse.com/topic/4054?pk_campaign=share&pk_kwd=topic?pos=&coordType=1",
                        "title": "人气潮Bar",
                        "viceTitle": "潮人夜生活去处"
                    }
                ],
                "schemeUrl": ""
            },
            {
                "itemData": [
                    {
                        "address": "方庄南路方恒偶寓底商105",
                        "businessesDistrict": "方庄",
                        "cityId": 1,
                        "commentTags": null,
                        "cuisineStyle": "酒吧",
                        "discountDesc": null,
                        "discountIconUrl": null,
                        "distance": "",
                        "highLigth": "坐落在南城的哥特式没落贵族气息酒吧",
                        "hostName": "MODERATO●莫酒吧●咖啡",
                        "id": 85414,
                        "isHaveEquities": 0,
                        "isInterested": 0,
                        "isJoinRedPacket": 0,
                        "latitude": "39.85083",
                        "linkUrl": "yhouse://host/85414",
                        "logoUrl": "http://p.yhres.com/hostInfo/2016/12/30/1483082440022447.jpg-ssq75",
                        "longitude": "116.43839",
                        "packageDesc": null,
                        "packageIconUrl": null,
                        "picUrl": "http://p.yhres.com/hostInfo/2017/02/24/1487923726032983.jpg-q75h",
                        "price": 100,
                        "priceStr": "人均: 100元",
                        "publicityWord": "小编推荐",
                        "recommendDesc": null,
                        "recommendSubHead": "猜你喜欢的人气好店",
                        "recommendTitle": "每日推荐",
                        "specialty": null,
                        "tagArr": [],
                        "tagArrDesc": null,
                        "title": "MODERATO●莫酒吧●咖啡",
                        "vipEqsTag": ""
                    },
                    {
                        "address": "朝阳公园路1号好运街沁酒吧",
                        "businessesDistrict": "蓝色港湾",
                        "cityId": 1,
                        "commentTags": null,
                        "cuisineStyle": "酒吧",
                        "discountDesc": null,
                        "discountIconUrl": null,
                        "distance": "",
                        "highLigth": "深藏地下的日式酒吧",
                        "hostName": "沁酒吧",
                        "id": 176185,
                        "isHaveEquities": 0,
                        "isInterested": 0,
                        "isJoinRedPacket": 0,
                        "latitude": "39.950187",
                        "linkUrl": "yhouse://host/176185",
                        "logoUrl": "http://p.yhres.com/hostInfo/2017/05/30/1496131385401808.jpg-ssq75",
                        "longitude": "116.47167",
                        "packageDesc": null,
                        "packageIconUrl": null,
                        "picUrl": "http://p.yhres.com/hostInfo/2017/05/30/1496131385316181.jpg-q75h",
                        "price": 110,
                        "priceStr": "人均: 110元",
                        "publicityWord": "小编推荐",
                        "recommendDesc": null,
                        "recommendSubHead": null,
                        "recommendTitle": null,
                        "specialty": null,
                        "tagArr": [],
                        "tagArrDesc": null,
                        "title": "沁酒吧",
                        "vipEqsTag": ""
                    },
                    {
                        "address": "三里屯路36号33大厦6层",
                        "businessesDistrict": "三里屯",
                        "cityId": 1,
                        "commentTags": null,
                        "cuisineStyle": "酒吧",
                        "discountDesc": null,
                        "discountIconUrl": null,
                        "distance": "",
                        "highLigth": "隐藏在三里屯角落的别样的小酒屋",
                        "hostName": "Mokihi No.3",
                        "id": 196671,
                        "isHaveEquities": 0,
                        "isInterested": 0,
                        "isJoinRedPacket": 0,
                        "latitude": "39.937068",
                        "linkUrl": "yhouse://host/196671",
                        "logoUrl": "http://p.yhres.com/hostInfo/2017/05/30/1496130123970519.jpg-ssq75",
                        "longitude": "116.454411",
                        "packageDesc": null,
                        "packageIconUrl": null,
                        "picUrl": "http://p.yhres.com/hostInfo/2017/05/30/1496130123847976.jpg-q75h",
                        "price": 111,
                        "priceStr": "人均: 111元",
                        "publicityWord": "小编推荐",
                        "recommendDesc": null,
                        "recommendSubHead": null,
                        "recommendTitle": null,
                        "specialty": null,
                        "tagArr": [],
                        "tagArrDesc": null,
                        "title": "Mokihi No.3",
                        "vipEqsTag": ""
                    },
                    {
                        "address": "建国门南大街2号北京长安街W酒店内",
                        "businessesDistrict": "建外大街",
                        "cityId": 1,
                        "commentTags": null,
                        "cuisineStyle": "酒吧",
                        "discountDesc": null,
                        "discountIconUrl": null,
                        "distance": "",
                        "highLigth": "引领时尚潮流 俯瞰CBD夜景好视觉",
                        "hostName": "W / Lounge",
                        "id": 23903,
                        "isHaveEquities": 0,
                        "isInterested": 0,
                        "isJoinRedPacket": 0,
                        "latitude": "39.906143",
                        "linkUrl": "yhouse://host/23903",
                        "logoUrl": "http://p.yhres.com/host/2016/11/01/1477988369577630.jpg-ssq75",
                        "longitude": "116.436813",
                        "packageDesc": "特调鸡尾酒带给你的醉人夜晚 W酒店鸡尾酒聚会趴",
                        "packageIconUrl": "http://r.yhres.com/home/tag_tao@2x.png",
                        "picUrl": "http://p.yhres.com/hostInfo/2016/08/19/1471584659178171.jpg-q75h",
                        "price": null,
                        "priceStr": null,
                        "publicityWord": "",
                        "recommendDesc": null,
                        "recommendSubHead": null,
                        "recommendTitle": null,
                        "specialty": null,
                        "tagArr": [
                            "套餐"
                        ],
                        "tagArrDesc": null,
                        "title": "W / Lounge",
                        "vipEqsTag": ""
                    },
                    {
                        "address": "三里屯1号Mercedesme2层",
                        "businessesDistrict": "三里屯",
                        "cityId": 1,
                        "commentTags": null,
                        "cuisineStyle": "酒吧",
                        "discountDesc": null,
                        "discountIconUrl": null,
                        "distance": "",
                        "highLigth": "刷爆朋友圈的三里屯奔驰餐厅 创意十足",
                        "hostName": "Lighthaus灯塔",
                        "id": 196873,
                        "isHaveEquities": 0,
                        "isInterested": 0,
                        "isJoinRedPacket": 0,
                        "latitude": "39.933079",
                        "linkUrl": "yhouse://host/196873",
                        "logoUrl": "http://p.yhres.com/hostInfo/2017/06/02/1496385682163974.jpg-ssq75",
                        "longitude": "116.454835",
                        "packageDesc": null,
                        "packageIconUrl": null,
                        "picUrl": "http://p.yhres.com/hostInfo/2017/06/02/1496385869736434.jpg-q75h",
                        "price": 100,
                        "priceStr": "人均: 100元",
                        "publicityWord": "",
                        "recommendDesc": null,
                        "recommendSubHead": null,
                        "recommendTitle": null,
                        "specialty": null,
                        "tagArr": [],
                        "tagArrDesc": null,
                        "title": "Lighthaus灯塔",
                        "vipEqsTag": ""
                    },
                    {
                        "address": "北京市朝阳区东风南路5号院5号楼幻bar（朝阳气象局对面）",
                        "businessesDistrict": "朝阳其它",
                        "cityId": 1,
                        "commentTags": null,
                        "cuisineStyle": "酒吧",
                        "discountDesc": null,
                        "discountIconUrl": null,
                        "distance": "",
                        "highLigth": "来自奥地利品牌的勃艮第杯 别致独特",
                        "hostName": "幻BAR",
                        "id": 196087,
                        "isHaveEquities": 0,
                        "isInterested": 0,
                        "isJoinRedPacket": 0,
                        "latitude": "39.958942",
                        "linkUrl": "yhouse://host/196087",
                        "logoUrl": "http://p.yhres.com/hostInfo/2017/05/22/1495448675823355.png-ssq75",
                        "longitude": "116.494938",
                        "packageDesc": null,
                        "packageIconUrl": null,
                        "picUrl": "http://p.yhres.com/hostInfo/2017/05/29/1496071831981720.png-q75h",
                        "price": 156,
                        "priceStr": "人均: 156元",
                        "publicityWord": "",
                        "recommendDesc": null,
                        "recommendSubHead": null,
                        "recommendTitle": null,
                        "specialty": null,
                        "tagArr": [],
                        "tagArrDesc": null,
                        "title": "幻BAR",
                        "vipEqsTag": ""
                    },
                    {
                        "address": "南三里屯路6号楼一层1-6号(通盈中心东门斜对面)",
                        "businessesDistrict": "三里屯",
                        "cityId": 1,
                        "commentTags": null,
                        "cuisineStyle": "酒吧",
                        "discountDesc": null,
                        "discountIconUrl": null,
                        "distance": "",
                        "highLigth": "原创鸡尾酒和性感爵士乐的奇妙相遇",
                        "hostName": "GOOD BAIT 悦饵",
                        "id": 196035,
                        "isHaveEquities": 0,
                        "isInterested": 0,
                        "isJoinRedPacket": 0,
                        "latitude": "39.931275",
                        "linkUrl": "yhouse://host/196035",
                        "logoUrl": "http://p.yhres.com/hostInfo/2017/05/22/1495436023047946.png-ssq75",
                        "longitude": "116.45562",
                        "packageDesc": null,
                        "packageIconUrl": null,
                        "picUrl": "http://p.yhres.com/hostInfo/2017/06/03/1496495472080182.png-q75h",
                        "price": 99,
                        "priceStr": "人均: 99元",
                        "publicityWord": "",
                        "recommendDesc": null,
                        "recommendSubHead": null,
                        "recommendTitle": null,
                        "specialty": null,
                        "tagArr": [],
                        "tagArrDesc": null,
                        "title": "GOOD BAIT 悦饵",
                        "vipEqsTag": ""
                    },
                    {
                        "address": "光华路1号",
                        "businessesDistrict": "建外大街",
                        "cityId": 1,
                        "commentTags": null,
                        "cuisineStyle": "酒吧",
                        "discountDesc": null,
                        "discountIconUrl": null,
                        "distance": "",
                        "highLigth": "一间提供葡萄酒零售和餐饮的葡萄酒吧",
                        "hostName": "嘉里大酒店一酒香",
                        "id": 87973,
                        "isHaveEquities": 0,
                        "isInterested": 0,
                        "isJoinRedPacket": 0,
                        "latitude": "39.914162",
                        "linkUrl": "yhouse://host/87973",
                        "logoUrl": "http://p.yhres.com/hostInfo/2017/05/22/1495454754397079.jpg-ssq75",
                        "longitude": "116.458459",
                        "packageDesc": null,
                        "packageIconUrl": null,
                        "picUrl": "http://p.yhres.com/hostInfo/2017/05/27/1495865151556753.jpg-q75h",
                        "price": 147,
                        "priceStr": "人均: 147元",
                        "publicityWord": "",
                        "recommendDesc": null,
                        "recommendSubHead": null,
                        "recommendTitle": null,
                        "specialty": null,
                        "tagArr": [],
                        "tagArrDesc": null,
                        "title": "嘉里大酒店一酒香",
                        "vipEqsTag": ""
                    },
                    {
                        "address": "新东路首开铂郡南区4号楼5单元1-027底商",
                        "businessesDistrict": "三里屯",
                        "cityId": 1,
                        "commentTags": null,
                        "cuisineStyle": "酒吧",
                        "discountDesc": null,
                        "discountIconUrl": null,
                        "distance": "",
                        "highLigth": "三里屯溢出的浓浓日式气息仿佛置身银座",
                        "hostName": "PeKinG Bar",
                        "id": 196917,
                        "isHaveEquities": 0,
                        "isInterested": 0,
                        "isJoinRedPacket": 0,
                        "latitude": "39.936868",
                        "linkUrl": "yhouse://host/196917",
                        "logoUrl": "http://p.yhres.com/hostInfo/2017/06/02/1496409452173025.png-ssq75",
                        "longitude": "116.451422",
                        "packageDesc": null,
                        "packageIconUrl": null,
                        "picUrl": "http://p.yhres.com/hostInfo/2017/06/03/1496483064119050.png-q75h",
                        "price": 300,
                        "priceStr": "人均: 300元",
                        "publicityWord": "",
                        "recommendDesc": null,
                        "recommendSubHead": null,
                        "recommendTitle": null,
                        "specialty": null,
                        "tagArr": [],
                        "tagArrDesc": null,
                        "title": "PeKinG Bar",
                        "vipEqsTag": ""
                    },
                    {
                        "address": "太平庄南里1号",
                        "businessesDistrict": "三里屯",
                        "cityId": 1,
                        "commentTags": null,
                        "cuisineStyle": "酒吧",
                        "discountDesc": null,
                        "discountIconUrl": null,
                        "distance": "",
                        "highLigth": "稀有顶尖的鸡尾酒给你极致的味蕾享受",
                        "hostName": "BBC Bar",
                        "id": 196911,
                        "isHaveEquities": 0,
                        "isInterested": 0,
                        "isJoinRedPacket": 0,
                        "latitude": "39.936792",
                        "linkUrl": "yhouse://host/196911",
                        "logoUrl": "http://p.yhres.com/hostInfo/2017/06/02/1496407612218905.png-ssq75",
                        "longitude": "116.444778",
                        "packageDesc": null,
                        "packageIconUrl": null,
                        "picUrl": "http://p.yhres.com/hostInfo/2017/06/03/1496482830312240.png-q75h",
                        "price": 77,
                        "priceStr": "人均: 77元",
                        "publicityWord": "",
                        "recommendDesc": null,
                        "recommendSubHead": null,
                        "recommendTitle": null,
                        "specialty": null,
                        "tagArr": [],
                        "tagArrDesc": null,
                        "title": "BBC Bar",
                        "vipEqsTag": ""
                    }
                ],
                "itemLayout": 3,
                "itemType": 7
            }
        ],
        "extraData": {
            "rocket": {
                "reserveBanner": [],
                "reserveList": [
                    {
                        "adsName": "reserveList",
                        "position": 1,
                        "content": [
                            {
                                "actual": false,
                                "xsort": 1,
                                "schemeUrl": "yhouse://topic/5329",
                                "pvUrl": null,
                                "description": null,
                                "title": "如何做个合格的雪莉酒大咖",
                                "linkName": "TOPIC",
                                "picUrl": "http://p.yhres.com/topic/2017/04/17/156762_1492419865214.jpg-q75",
                                "linkId": 5329,
                                "linkUrl": "/topic/5329",
                                "linkType": 6,
                                "id": 0,
                                "sPicUrl": "http://p.yhres.com/topic/2017/04/17/156762_1492419865214.jpg-ssq75"
                            },
                            {
                                "actual": false,
                                "xsort": 2,
                                "schemeUrl": "yhouse://topic/4397",
                                "pvUrl": null,
                                "description": null,
                                "title": "如何一键点亮酒吧达人技能树",
                                "linkName": "TOPIC",
                                "picUrl": "http://p.yhres.com/topic/2017/03/09/156957_1489054506237.jpg-q75",
                                "linkId": 4397,
                                "linkUrl": "/topic/4397",
                                "linkType": 6,
                                "id": 0,
                                "sPicUrl": "http://p.yhres.com/topic/2017/03/09/156957_1489054506237.jpg-ssq75"
                            },
                            {
                                "actual": false,
                                "xsort": 3,
                                "schemeUrl": "yhouse://topic/4043",
                                "pvUrl": null,
                                "description": null,
                                "title": "比送她10支口红更管用的鸡尾酒是什么？",
                                "linkName": "TOPIC",
                                "picUrl": "http://p.yhres.com/topic/2017/02/09/156957_1486607613117.jpg-q75",
                                "linkId": 4043,
                                "linkUrl": "/topic/4043",
                                "linkType": 6,
                                "id": 0,
                                "sPicUrl": "http://p.yhres.com/topic/2017/02/09/156957_1486607613117.jpg-ssq75"
                            }
                        ]
                    }
                ]
            }
        },
        "isEnd": 0,
        "nextPage": 2,
        "page": 1,
        "pageSize": 10,
        "pid": "85414,176185,196671,23903,196873,196087,196035,87973,196917,196911",
        "totalRows": 154
    },
    "detail": "",
    "message": "success"
}